{
    "Window": {
        "Height": 960,
        "Width": 1280
    },
    "Button": {
        "Idle": "assets/panel-transparent-center-027d black3.png",
        "Hover": "assets/panel-027d black3.png",
        "Disabled": "assets/skull.png",
        "Transparent": "assets/transparent.png",
        "Size": "32",
        "Corner": "32"
    },
    "BoardNavButton": {
        "Idle": "assets/panel-transparent-center-027d.png",
        "Hover": "assets/panel-transparent-center-027d black3.png",
        "Disabled": "assets/panel-transparent-center-027d black3.png",
        "Size": "18",
        "Corner": "40",
        "IconSize": "64",
        "Icons": {
            "Objective": {
                "Idle": "assets/book_closed.png",
                "Hover": "assets/book_closed.png",
                "Disabled": "assets/skull.png"
            },
            "Chat": {
                "Idle": "assets/notepad_write.png",
                "Hover": "assets/notepad_write.png",
                "Disabled": "assets/skull.png"
            },
            "Cards": {
                "Idle": "assets/cards_seek_top.png",
                "Hover": "assets/cards_seek_top.png",
                "Disabled": "assets/skull.png"
            },
            "Advance": {
                "Idle": "assets/play.png",
                "Hover": "assets/play.png",
                "Disabled": "assets/skull.png"
            },
            "MoveArmy": {
                "Idle": "assets/play.png",
                "Hover": "assets/play.png",
                "Disabled": "assets/transparent.png"
            }
        }
    },
    "BoardStats": {
        "Black": "assets/button_round_depth_gradient_black.png",
        "Blue": "assets/button_round_gradient_blue.png",
        "Green": "assets/button_round_gradient_green.png",
        "Red": "assets/button_round_gradient_red.png",
        "Yellow": "assets/button_round_gradient_yellow.png",
        "Magenta": "assets/button_square_depth_line.png",
        "TradesIcon": "assets/card_rotate.png",
        "CardsIcon":"assets/cards_fan_outline.png",
        "CountriesIcon": "assets/structure_house.png",
        "TurnOwnerIcon": "assets/hourglass.png",
        "IconSize": 64,
        "Height": 10,
        "Width": 250,
        "PaddingX": 5,
        "PaddingY": 5,
        "FontSize": 16
    },
    "Card": {
        "Height": 760,
        "Width": 539,
        "Background": "assets/card1.png",
        "Cannon":"assets/cannon_card.png",
        "Ship": "assets/ship_card.png",
        "Globe": "assets/globe_card.png"
    },
    "Dice": {
        "Dice_1": "assets/dice_1.png",
        "Dice_2": "assets/dice_2.png",
        "Dice_3": "assets/dice_3.png",
        "Dice_4": "assets/dice_4.png",
        "Dice_5": "assets/dice_5.png",
        "Dice_6": "assets/dice_6.png",
        "Height": 64, 
        "Width": 64 
    }
    
}